\relax 
\providecommand\hyper@newdestlabel[2]{}
\catcode `"\active 
\providecommand\HyperFirstAtBeginDocument{\AtBeginDocument}
\HyperFirstAtBeginDocument{\ifx\hyper@anchor\@undefined
\global\let\oldcontentsline\contentsline
\gdef\contentsline#1#2#3#4{\oldcontentsline{#1}{#2}{#3}}
\global\let\oldnewlabel\newlabel
\gdef\newlabel#1#2{\newlabelxx{#1}#2}
\gdef\newlabelxx#1#2#3#4#5#6{\oldnewlabel{#1}{{#2}{#3}}}
\AtEndDocument{\ifx\hyper@anchor\@undefined
\let\contentsline\oldcontentsline
\let\newlabel\oldnewlabel
\fi}
\fi}
\global\let\hyper@last\relax 
\gdef\HyperFirstAtBeginDocument#1{#1}
\providecommand\HyField@AuxAddToFields[1]{}
\providecommand\HyField@AuxAddToCoFields[2]{}
\reset@newl@bel
\select@language{english}
\@writefile{toc}{\select@language{english}}
\@writefile{lof}{\select@language{english}}
\@writefile{lot}{\select@language{english}}
\select@language{english}
\@writefile{toc}{\select@language{english}}
\@writefile{lof}{\select@language{english}}
\@writefile{lot}{\select@language{english}}
\citation{inductor1}
\citation{MOSFET1}
\citation{DAC}
\citation{kutkut}
\undonewlabel{acro:EV}
\newlabel{acro:EV}{{}{1}{}{section*.1}{}}
\acronymused{EV}
\undonewlabel{acro:HEV}
\newlabel{acro:HEV}{{}{1}{}{section*.2}{}}
\acronymused{HEV}
\undonewlabel{acro:Li-Ion}
\newlabel{acro:Li-Ion}{{}{1}{}{section*.3}{}}
\acronymused{Li-Ion}
\undonewlabel{acro:EES}
\newlabel{acro:EES}{{}{1}{}{section*.4}{}}
\acronymused{EES}
\acronymused{Li-Ion}
\acronymused{Li-Ion}
\undonewlabel{acro:BMS}
\newlabel{acro:BMS}{{}{1}{}{section*.5}{}}
\acronymused{BMS}
\undonewlabel{acro:SoC}
\newlabel{acro:SoC}{{}{1}{}{section*.6}{}}
\acronymused{SoC}
\acronymused{Li-Ion}
\acronymused{SoC}
\acronymused{SoC}
\acronymused{SoC}
\acronymused{SoC}
\acronymused{SoC}
\undonewlabel{acro:MOSFET}
\newlabel{acro:MOSFET}{{}{1}{}{section*.7}{}}
\acronymused{MOSFET}
\acronymused{SoC}
\acronymused{SoC}
\acronymused{EV}
\acronymused{EV}
\acronymused{SoC}
\acronymused{MOSFET}
\citation{Shin1,Shin2,Shin3,Shin4,Shin5,Shin6,Reconfig1,Reconfig2,Reconfig3,Reconfig4}
\citation{Switching}
\citation{kutkut}
\@writefile{lof}{\contentsline {figure}{\numberline {1}{\ignorespaces (a) Comparison of cell balancing current according to different battery usage scenarios. (b) Energy efficiency of cell balancing circuitry according to the balancing current.}}{2}{figure.1}}
\newlabel{fig:motivation}{{1}{2}{(a) Comparison of cell balancing current according to different battery usage scenarios. (b) Energy efficiency of cell balancing circuitry according to the balancing current}{figure.1}{}}
\undonewlabel{acro:FPGA}
\newlabel{acro:FPGA}{{}{2}{}{section*.8}{}}
\acronymused{FPGA}
\@writefile{toc}{\contentsline {section}{\numberline {1}State of the art and preliminary work}{2}{section.1}}
\newlabel{section1}{{1}{2}{State of the art and preliminary work}{section.1}{}}
\@writefile{toc}{\contentsline {subsection}{\numberline {1.1}Operating Principle}{2}{subsection.1.1}}
\newlabel{subsec:operatingprinciple}{{1.1}{2}{Operating Principle}{subsection.1.1}{}}
\citation{review1}
\citation{review2}
\citation{review3}
\citation{review4}
\@writefile{lof}{\contentsline {figure}{\numberline {2}{\ignorespaces Inductor-based active cell balancing architecture and its control signals. (a) Excess charge from cell $B^1$ is transferred to cell $B^2$ through inductor $L^1$. (b) Control signals required to perform the charge transfer and the corresponding balancing current through the inductor.}}{3}{figure.2}}
\newlabel{fig:working}{{2}{3}{Inductor-based active cell balancing architecture and its control signals. (a) Excess charge from cell $B^1$ is transferred to cell $B^2$ through inductor $L^1$. (b) Control signals required to perform the charge transfer and the corresponding balancing current through the inductor}{figure.2}{}}
\acronymused{MOSFET}
\acronymused{MOSFET}
\acronymused{MOSFET}
\acronymused{MOSFET}
\@writefile{toc}{\contentsline {subsection}{\numberline {1.2}Related Work}{3}{subsection.1.2}}
\newlabel{subsec:relatedwork}{{1.2}{3}{Related Work}{subsection.1.2}{}}
\@writefile{toc}{\contentsline {subsubsection}{\numberline {1.2.1}Classification based on Energy Storage Element}{3}{subsubsection.1.2.1}}
\newlabel{subsubsec:energystorageelement}{{1.2.1}{3}{Classification based on Energy Storage Element}{subsubsection.1.2.1}{}}
\citation{SC1}
\citation{DTSC1}
\citation{DTSC2}
\citation{SSC1}
\citation{flybackDCDC}
\citation{SWTR1}
\citation{SWTR2}
\citation{MTWTR1}
\citation{MTTR1}
\citation{review2}
\citation{kutkut}
\citation{SI1}
\citation{DCDC1}
\citation{DCDC2}
\acronymused{SoC}
\acronymused{SoC}
\acronymused{MOSFET}
\acronymused{EV}
\acronymused{HEV}
\acronymused{MOSFET}
\citation{Baronti}
\citation{Compare2}
\citation{kutkut}
\citation{SC1}
\citation{DCDC1}
\citation{Baronti}
\citation{MKCC2013}
\citation{LT8584}
\citation{LT}
\citation{Multiple}
\citation{DAC}
\citation{MartinCODES}
\citation{SmartCell}
\citation{ASPDAC}
\citation{DAC}
\citation{DAC}
\@writefile{toc}{\contentsline {subsubsection}{\numberline {1.2.2}Classification based on Charge Transfer Scenarios}{5}{subsubsection.1.2.2}}
\newlabel{subsubsec:chargetransferscenarios}{{1.2.2}{5}{Classification based on Charge Transfer Scenarios}{subsubsection.1.2.2}{}}
\acronymused{SoC}
\acronymused{SoC}
\@writefile{toc}{\contentsline {subsection}{\numberline {1.3}Preliminary Work}{5}{subsection.1.3}}
\newlabel{subsec:preliminarywork}{{1.3}{5}{Preliminary Work}{subsection.1.3}{}}
\acronymused{MOSFET}
\acronymused{MOSFET}
\acronymused{MOSFET}
\acronymused{MOSFET}
\acronymused{MOSFET}
\citation{DAC}
\citation{MartinCODES}
\citation{ASPDAC}
\citation{DAC}
\citation{kutkut}
\citation{MKCC2013}
\citation{MartinCODES}
\citation{MartinCODES}
\citation{ASPDAC}
\citation{ASPDAC}
\citation{DAC}
\citation{ASPDAC}
\citation{TCADshort}
\@writefile{lof}{\contentsline {figure}{\numberline {3}{\ignorespaces Proposed inductor-based active cell balancing architecture. (a) \cite  {DAC}, (b) \cite  {MartinCODES} and \cite  {ASPDAC}.}}{6}{figure.3}}
\newlabel{fig:architectures}{{3}{6}{Proposed inductor-based active cell balancing architecture. (a) \cite {DAC}, (b) \cite {MartinCODES} and \cite {ASPDAC}}{figure.3}{}}
\acronymused{MOSFET}
\acronymused{MOSFET}
\acronymused{MOSFET}
\acronymused{MOSFET}
\acronymused{MOSFET}
\acronymused{MOSFET}
\acronymused{MOSFET}
\acronymused{SoC}
\citation{Indopt}
\citation{DATE}
\citation{DAC}
\citation{ASPDAC}
\citation{CPCSF}
\citation{park:dac13}
\citation{wang:date13,wei:dac14,park:islped2012}
\citation{kim:iccad2011}
\acronymused{MOSFET}
\acronymused{SoC}
\acronymused{EV}
\@writefile{toc}{\contentsline {subsubsection}{\numberline {1.3.1}Project-related Publications}{7}{subsubsection.1.3.1}}
\newlabel{subsec:projectrelatedpublications}{{1.3.1}{7}{Project-related Publications}{subsubsection.1.3.1}{}}
\citation{kutkut}
\citation{DAC}
\citation{MartinCODES}
\citation{kutkut}
\citation{DAC}
\citation{ASPDAC}
\citation{Shin1}
\citation{Shin2}
\citation{Shin3}
\citation{Shin4}
\@writefile{toc}{\contentsline {section}{\numberline {2}Objectives and Work Program}{9}{section.2}}
\@writefile{toc}{\contentsline {subsection}{\numberline {2.1}Anticipated total duration of the project}{9}{subsection.2.1}}
\@writefile{toc}{\contentsline {subsection}{\numberline {2.2}Objectives}{9}{subsection.2.2}}
\citation{kutkut}
\citation{DAC}
\citation{MartinCODES}
\citation{DAC}
\citation{DATE}
\@writefile{toc}{\contentsline {subsection}{\numberline {2.3}Work Program}{10}{subsection.2.3}}
\@writefile{lof}{\contentsline {figure}{\numberline {4}{\ignorespaces Time structure of work packages.}}{10}{figure.4}}
\newlabel{fig.gantt}{{4}{10}{Time structure of work packages}{figure.4}{}}
\@writefile{toc}{\contentsline {subsubsection}{\numberline {2.3.1}WP 1: Reconfigurable Energy Storage Element}{10}{subsubsection.2.3.1}}
\newlabel{subsubsec:WP1}{{2.3.1}{10}{WP 1: Reconfigurable Energy Storage Element}{subsubsection.2.3.1}{}}
\acronymused{EV}
\acronymused{EV}
\acronymused{EV}
\acronymused{HEV}
\citation{DAC}
\citation{MKCC2013}
\citation{DAC}
\citation{kutkut}
\citation{MartinCODES}
\citation{NONB}
\citation{ASPDAC}
\@writefile{lof}{\contentsline {figure}{\numberline {5}{\ignorespaces Reconfigurable energy storage element. (a) Multiple inductors each optimized for a specific value of balancing current. (b) Reconfigurable inductive potentiometer with multiple taps for optimal balancing at different equalization currents.}}{11}{figure.5}}
\newlabel{fig:inductorarray}{{5}{11}{Reconfigurable energy storage element. (a) Multiple inductors each optimized for a specific value of balancing current. (b) Reconfigurable inductive potentiometer with multiple taps for optimal balancing at different equalization currents}{figure.5}{}}
\acronymused{SoC}
\acronymused{EV}
\acronymused{HEV}
\@writefile{toc}{\contentsline {subsubsection}{\numberline {2.3.2}WP 2: Architecture Reconfiguration}{11}{subsubsection.2.3.2}}
\newlabel{subsubsec:WP2}{{2.3.2}{11}{WP 2: Architecture Reconfiguration}{subsubsection.2.3.2}{}}
\@writefile{lof}{\contentsline {figure}{\numberline {6}{\ignorespaces Reconfigurable active cell balancing architecture consisting of programmable inductor-array and switching network.}}{12}{figure.6}}
\newlabel{fig:switchingnetwork}{{6}{12}{Reconfigurable active cell balancing architecture consisting of programmable inductor-array and switching network}{figure.6}{}}
\acronymused{MOSFET}
\acronymused{MOSFET}
\acronymused{MOSFET}
\acronymused{MOSFET}
\@writefile{toc}{\contentsline {subsubsection}{\numberline {2.3.3}WP 3: Pack Topology Reconfiguration}{12}{subsubsection.2.3.3}}
\newlabel{subsubsec:WP3}{{2.3.3}{12}{WP 3: Pack Topology Reconfiguration}{subsubsection.2.3.3}{}}
\citation{Shin1,Shin2,Shin3,Shin4,Shin5,Shin6,Reconfig1,Reconfig2,Reconfig3,Reconfig4}
\citation{Reconfig1,Reconfig2}
\citation{Shin2}
\citation{Shin3}
\citation{Shin5}
\citation{Reconfig3,Reconfig4}
\citation{Shin1}
\citation{Shin4}
\citation{Shin6}
\citation{Reconfig1}
\citation{Reconfig2}
\citation{Shin2,Shin3}
\citation{Shin5}
\citation{Reconfig3}
\citation{Reconfig4}
\@writefile{lof}{\contentsline {figure}{\numberline {7}{\ignorespaces Reconfigurable active cell balancing architecture consisting of programmable inductor-array and switching network.}}{13}{figure.7}}
\newlabel{fig:reconfiguration}{{7}{13}{Reconfigurable active cell balancing architecture consisting of programmable inductor-array and switching network}{figure.7}{}}
\citation{CPCSF}
\@writefile{toc}{\contentsline {subsubsection}{\numberline {2.3.4}WP 4: Prediction-based Management Algorithms}{14}{subsubsection.2.3.4}}
\newlabel{subsubsec:WP4}{{2.3.4}{14}{WP 4: Prediction-based Management Algorithms}{subsubsection.2.3.4}{}}
\acronymused{SoC}
\acronymused{SoC}
\@writefile{toc}{\contentsline {subsubsection}{\numberline {2.3.5}WP 5: Hardware Demonstrators and Simulation Frameworks}{14}{subsubsection.2.3.5}}
\newlabel{subsubsec:WP5}{{2.3.5}{14}{WP 5: Hardware Demonstrators and Simulation Frameworks}{subsubsection.2.3.5}{}}
\undonewlabel{acro:PCB}
\newlabel{acro:PCB}{{2.3.5}{14}{WP 5: Hardware Demonstrators and Simulation Frameworks}{section*.9}{}}
\acronymused{PCB}
\undonewlabel{acro:DAQ}
\newlabel{acro:DAQ}{{2.3.5}{14}{WP 5: Hardware Demonstrators and Simulation Frameworks}{section*.10}{}}
\acronymused{DAQ}
\acronymused{BMS}
\bibstyle{ieeetr}
\bibdata{BIB/reference}
\bibcite{inductor1}{1}
\bibcite{MOSFET1}{2}
\bibcite{DAC}{3}
\bibcite{kutkut}{4}
\bibcite{Shin1}{5}
\bibcite{Shin2}{6}
\bibcite{Shin3}{7}
\bibcite{Shin4}{8}
\bibcite{Shin5}{9}
\bibcite{Shin6}{10}
\acronymused{EV}
\@writefile{toc}{\contentsline {subsection}{\numberline {2.4}Data handling}{15}{subsection.2.4}}
\@writefile{toc}{\contentsline {subsection}{\numberline {2.5}Other information}{15}{subsection.2.5}}
\@writefile{toc}{\contentsline {subsection}{\numberline {2.6}Descriptions of proposed investigations involving experiments on humans, human materials or animals}{15}{subsection.2.6}}
\@writefile{toc}{\contentsline {subsection}{\numberline {2.7}Information on scientific and financial involvement of international cooperation partners}{15}{subsection.2.7}}
\@writefile{toc}{\contentsline {section}{\numberline {3}Bibliography}{15}{section.3}}
\bibcite{Reconfig1}{11}
\bibcite{Reconfig2}{12}
\bibcite{Reconfig3}{13}
\bibcite{Reconfig4}{14}
\bibcite{Switching}{15}
\bibcite{review1}{16}
\bibcite{review2}{17}
\bibcite{review3}{18}
\bibcite{review4}{19}
\bibcite{SC1}{20}
\bibcite{DTSC1}{21}
\bibcite{DTSC2}{22}
\bibcite{SSC1}{23}
\bibcite{flybackDCDC}{24}
\bibcite{SWTR1}{25}
\bibcite{SWTR2}{26}
\bibcite{MTWTR1}{27}
\bibcite{MTTR1}{28}
\bibcite{SI1}{29}
\bibcite{DCDC1}{30}
\bibcite{DCDC2}{31}
\bibcite{Baronti}{32}
\bibcite{Compare2}{33}
\bibcite{MKCC2013}{34}
\bibcite{LT8584}{35}
\bibcite{LT}{36}
\bibcite{Multiple}{37}
\bibcite{MartinCODES}{38}
\bibcite{SmartCell}{39}
\bibcite{ASPDAC}{40}
\bibcite{TCADshort}{41}
\bibcite{Indopt}{42}
\bibcite{DATE}{43}
\bibcite{CPCSF}{44}
\bibcite{wang:date13}{45}
\bibcite{wei:dac14}{46}
\bibcite{park:islped2012}{47}
\bibcite{park:dac13}{48}
\bibcite{kim:iccad2011}{49}
\bibcite{NONB}{50}
\@writefile{toc}{\contentsline {section}{\numberline {4}Requested modules/funds}{18}{section.4}}
\@writefile{toc}{\contentsline {subsection}{\numberline {4.1}Basic Module}{18}{subsection.4.1}}
\@writefile{toc}{\contentsline {subsubsection}{\numberline {4.1.1}Funding for staff}{18}{subsubsection.4.1.1}}
\@writefile{toc}{\contentsline {paragraph}{\numberline {4.1.1.1}Research staff}{18}{paragraph.4.1.1.1}}
\@writefile{toc}{\contentsline {paragraph}{\numberline {4.1.1.2}Student assistants}{18}{paragraph.4.1.1.2}}
\@writefile{toc}{\contentsline {subsubsection}{\numberline {4.1.2}Funding for direct project costs}{18}{subsubsection.4.1.2}}
\@writefile{toc}{\contentsline {paragraph}{\numberline {4.1.2.1}Equipment up to \officialeuro  10,000, software and consumables}{18}{paragraph.4.1.2.1}}
\@writefile{toc}{\contentsline {paragraph}{\numberline {4.1.2.2}Travel expenses}{18}{paragraph.4.1.2.2}}
\@writefile{toc}{\contentsline {paragraph}{\numberline {4.1.2.3}Visiting researchers}{19}{paragraph.4.1.2.3}}
\@writefile{toc}{\contentsline {paragraph}{\numberline {4.1.2.4}Other costs}{19}{paragraph.4.1.2.4}}
\@writefile{toc}{\contentsline {paragraph}{\numberline {4.1.2.5}Project-related publication expenses}{19}{paragraph.4.1.2.5}}
\@writefile{toc}{\contentsline {section}{\numberline {5}Project requirements}{19}{section.5}}
\@writefile{toc}{\contentsline {subsection}{\numberline {5.1}Employment status information}{19}{subsection.5.1}}
\@writefile{toc}{\contentsline {subsection}{\numberline {5.2}First-time proposal data}{19}{subsection.5.2}}
\@writefile{toc}{\contentsline {subsection}{\numberline {5.3}Composition of the project group}{19}{subsection.5.3}}
\@writefile{toc}{\contentsline {subsection}{\numberline {5.4}Cooperation with other researchers}{19}{subsection.5.4}}
\@writefile{toc}{\contentsline {subsubsection}{\numberline {5.4.1}Researchers with whom you have agreed to cooperate on this project}{19}{subsubsection.5.4.1}}
\newlabel{sssec:cooperation_existing}{{5.4.1}{19}{Researchers with whom you have agreed to cooperate on this project}{subsubsection.5.4.1}{}}
\@writefile{toc}{\contentsline {subsubsection}{\numberline {5.4.2}Researchers with whom you have collaborated scientifically within the past three years}{19}{subsubsection.5.4.2}}
\newlabel{sssec:cooperation_past}{{5.4.2}{19}{Researchers with whom you have collaborated scientifically within the past three years}{subsubsection.5.4.2}{}}
\@writefile{toc}{\contentsline {subsection}{\numberline {5.5}Scientific equipment}{19}{subsection.5.5}}
\@writefile{toc}{\contentsline {subsection}{\numberline {5.6}Project-relevant interests in commercial enterprises}{19}{subsection.5.6}}
\@writefile{toc}{\contentsline {section}{\numberline {6}Additional information}{20}{section.6}}
\newlabel{54.012.pages}{{3}{20}{Bibliography}{section.6}{}}
\@input{extra/acronyms.aux}
