\BOOKMARK [1][-]{section.1}{Proposal data}{}% 1
\BOOKMARK [1][-]{section.1}{Type of proposal}{}% 2
\BOOKMARK [1][-]{section.2}{Porposal information}{}% 3
\BOOKMARK [2][-]{subsection.2.1}{Title/duration}{section.2}% 4
\BOOKMARK [2][-]{subsection.2.2}{Subject classification}{section.2}% 5
\BOOKMARK [2][-]{subsection.2.3}{Keywords}{section.2}% 6
\BOOKMARK [2][-]{subsection.2.4}{Countries}{section.2}% 7
\BOOKMARK [2][-]{subsection.2.5}{Summary}{section.2}% 8
\BOOKMARK [1][-]{section.3}{Participating individuals}{}% 9
\BOOKMARK [2][-]{subsection.3.1}{Applicants}{section.3}% 10
\BOOKMARK [2][-]{subsection.3.2}{Other participating individuals}{section.3}% 11
\BOOKMARK [2][-]{subsection.3.3}{Participating institutions}{section.3}% 12
