\relax 
\providecommand\hyper@newdestlabel[2]{}
\newacro{ADC}[\AC@hyperlink{ADC}{ADC}]{Analog to Digital Converter}
\newacro{ALU}[\AC@hyperlink{ALU}{ALU}]{Arithmetic and Logical Unit}
\newacro{ASIC}[\AC@hyperlink{ASIC}{ASIC}]{Application Specific Integrated Circuit}
\newacro{BMS}[\AC@hyperlink{BMS}{BMS}]{Battery Management System}
\newacro{CAN}[\AC@hyperlink{CAN}{CAN}]{Controller Area Network}
\newacro{CMOS}[\AC@hyperlink{CMOS}{CMOS}]{Complimentary Metal-Oxide Semiconductor}
\newacro{CMRR}[\AC@hyperlink{CMRR}{CMRR}]{Common-Mode Rejection Ratio}
\newacro{CMU}[\AC@hyperlink{CMU}{CMU}]{Cell Management Unit}
\newacro{CPCSF}[\AC@hyperlink{CPCSF}{CPCSF}]{Cyber-Physical Co-Simulation Framework}
\newacro{CSA}[\AC@hyperlink{CSA}{CSA}]{Current Sense Amplifier}
\newacro{CTM}[\AC@hyperlink{CTM}{CTM}]{Continuous Transfer Mode}
\newacro{DAC}[\AC@hyperlink{DAC}{DAC}]{Digital to Analog Converter}
\newacro{DAQ}[\AC@hyperlink{DAQ}{DAQ}]{Data Acquisition}
\newacro{DPM}[\AC@hyperlink{DPM}{DPM}]{Dynamic Power Management}
\newacro{DTM}[\AC@hyperlink{DTM}{DTM}]{Discontinuous Transfer Mode}
\newacro{DVFS}[\AC@hyperlink{DVFS}{DVFS}]{Dynamic Voltage and Frequency Scaling}
\newacro{EES}[\AC@hyperlink{EES}{EES}]{Electrical Energy Storage}
\newacro{EKF}[\AC@hyperlink{EKF}{EKF}]{Extended Kalman Filter}
\newacro{EMI}[\AC@hyperlink{EMI}{EMI}]{Electro-Magnetic Interference}
\newacro{EV}[\AC@hyperlink{EV}{EV}]{Electric Vehicle}
\newacro{FPGA}[\AC@hyperlink{FPGA}{FPGA}]{Field-Programmable Gate Array}
\newacro{HDL}[\AC@hyperlink{HDL}{HDL}]{Hardware Descriptive Language}
\newacro{HEV}[\AC@hyperlink{HEV}{HEV}]{Hybrid Electric Vehicle}
\newacro{HIL}[\AC@hyperlink{HIL}{HIL}]{Hardware-in-the-loop}
\newacro{HVAC}[\AC@hyperlink{HVAC}{HVAC}]{Heating, Ventilation and Air Conditioning}
\newacro{IC}[\AC@hyperlink{IC}{IC}]{Integrated Circuit}
\newacro{ICE}[\AC@hyperlink{ICE}{ICE}]{Internal Combustion Engine}
\newacro{IGBT}[\AC@hyperlink{IGBT}{IGBT}]{Insulated-Gate Bipolar Transistor}
\newacro{ISR}[\AC@hyperlink{ISR}{ISR}]{Interrupt Service Routine}
\newacro{LCD}[\AC@hyperlink{LCD}{LCD}]{Liquid Crystal Display}
\newacro{LDO}[\AC@hyperlink{LDO}{LDO}]{Low Dropout Regulator}
\newacro{LED}[\AC@hyperlink{LED}{LED}]{Light Emitting Diode}
\newacro{Li}[\AC@hyperlink{Li}{Li}]{Lithium}
\newacro{Li-Ion}[\AC@hyperlink{Li-Ion}{Li-Ion}]{Lithium-Ion}
\newacro{MCU}[\AC@hyperlink{MCU}{MCU}]{Micro Controller Unit}
\newacro{MMU}[\AC@hyperlink{MMU}{MMU}]{Module Management Unit}
\newacro{MOSFET}[\AC@hyperlink{MOSFET}{MOSFET}]{Metal-Oxide-Semiconductor Field-Effect Transistor}
\newacro{Ni}[\AC@hyperlink{Ni}{Ni}]{Nickel}
\newacro{NiCd}[\AC@hyperlink{NiCd}{NiCd}]{Nickel Cadmium}
\newacro{NiMH}[\AC@hyperlink{NiMH}{NiMH}]{Nickel-Metal Hydride}
\newacro{OCV}[\AC@hyperlink{OCV}{OCV}]{Open Circuit Voltage}
\newacro{ODE}[\AC@hyperlink{ODE}{ODE}]{Ordinary Differential Equation}
\newacro{PC}[\AC@hyperlink{PC}{PC}]{Personal Computer}
\newacro{PCB}[\AC@hyperlink{PCB}{PCB}]{Printed Circuit Board}
\newacro{PCM}[\AC@hyperlink{PCM}{PCM}]{Parallel-Connected Modules}
\newacro{PFM}[\AC@hyperlink{PFM}{PFM}]{Pulse Frequency Modulation}
\newacro{PMU}[\AC@hyperlink{PMU}{PMU}]{Pack Management Unit}
\newacro{PWM}[\AC@hyperlink{PWM}{PWM}]{Pulse Width Modulated}
\newacro{RTD}[\AC@hyperlink{RTD}{RTD}]{Resistance Temperature Detector}
\newacro{SCM}[\AC@hyperlink{SCM}{SCM}]{Series-Connected Modules}
\newacro{SoC}[\AC@hyperlink{SoC}{SoC}]{State-of-Charge}
\newacro{SoH}[\AC@hyperlink{SoH}{SoH}]{State-of-Health}
\newacro{SPI}[\AC@hyperlink{SPI}{SPI}]{Serial Peripheral Interface}
\newacro{SPICE}[\AC@hyperlink{SPICE}{SPICE}]{Simulation Program with Integrated Circuit Emphasis}
\newacro{UART}[\AC@hyperlink{UART}{UART}]{Universal Asynchronous Receiver Transmitter}
\@setckpt{extra/acronyms}{
\setcounter{page}{22}
\setcounter{equation}{0}
\setcounter{enumi}{6}
\setcounter{enumii}{0}
\setcounter{enumiii}{0}
\setcounter{enumiv}{50}
\setcounter{footnote}{0}
\setcounter{mpfootnote}{0}
\setcounter{part}{0}
\setcounter{section}{6}
\setcounter{subsection}{0}
\setcounter{subsubsection}{0}
\setcounter{paragraph}{0}
\setcounter{subparagraph}{0}
\setcounter{figure}{7}
\setcounter{table}{0}
\setcounter{subfigure}{0}
\setcounter{lofdepth}{1}
\setcounter{subtable}{0}
\setcounter{lotdepth}{1}
\setcounter{lstnumber}{1}
\setcounter{r@tfl@t}{0}
\setcounter{Item}{6}
\setcounter{Hfootnote}{0}
\setcounter{bookmark@seq@number}{35}
\setcounter{parentequation}{0}
\setcounter{ganttnum}{-7}
\setcounter{ganttwidth}{9}
\setcounter{gantttitlenum}{0}
\setcounter{@todonotes@numberoftodonotes}{0}
\setcounter{lstlisting}{0}
\setcounter{section@level}{0}
}
